^C:\USERS\IVAN\SOURCE\REPOS\LAB2\ASSIGNMENT1\ASSIGNMENT1.C
C:\USERS\IVAN\SOURCE\REPOS\LAB2\ASSIGNMENT1\DEBUG\VC142.PDB
C:\USERS\IVAN\SOURCE\REPOS\LAB2\ASSIGNMENT1\DEBUG\VC142.IDB
C:\USERS\IVAN\SOURCE\REPOS\LAB2\ASSIGNMENT1\DEBUG\ASSIGNMENT1.OBJ
